Project 1: Exploratory Data Analysis
…
# Creating a new variable that includes the ratio of male
# obesity prevalence to births by cesarean section and female
# obesity prevalence to births by cesarean section,
# respectively.  Using function mutate in dplyr in
# conjunction with group by using a categorical variable
csobesity %>% na.omit %>% group_by(Country) %>% mutate(malebmi_to_csection = Male/Births.by.caesarean.section....)

## # A tibble: 172 x 6
## # Groups:   Country [169]
##    Country    Year     Births.by.caesarean.secti…  Male Female malebmi_to_csect…
##    <fct>      <fct>                         <dbl> <dbl>  <dbl>             <dbl>
##  1 Afghanist… 2010-20…                        2.7   4.2    4.2             1.56 
##  2 Albania    2013                           34.1  13.3    7.9             0.390
##  3 Algeria    2010-20…                       16    17.6   15.4             1.1  
##  4 Angola     2010-20…                        3.7   2.5    4               0.676
##  5 Argentina  2011                           29.1  25.6   17.8             0.880
##  6 Armenia    2010-20…                       18     7.4    5.8             0.411
##  7 Australia  2015                           33.3  16.1   12.9             0.483
##  8 Austria    2016                           29.5  13      7.8             0.441
##  9 Azerbaijan 2015                           27.6   7.4    5.8             0.268
## 10 Bahrain    2015                           28    22     18.3             0.786
## # … with 162 more rows

csobesity %>% na.omit %>% group_by(Country) %>% mutate(femalebmi_to_csection = Female/Births.by.caesarean.section....)

## # A tibble: 172 x 6
## # Groups:   Country [169]
##    Country    Year    Births.by.caesarean.sect…  Male Female femalebmi_to_csect…
##    <fct>      <fct>                       <dbl> <dbl>  <dbl>               <dbl>
##  1 Afghanist… 2010-2…                       2.7   4.2    4.2               1.56 
##  2 Albania    2013                         34.1  13.3    7.9               0.232
##  3 Algeria    2010-2…                      16    17.6   15.4               0.962
##  4 Angola     2010-2…                       3.7   2.5    4                 1.08 
##  5 Argentina  2011                         29.1  25.6   17.8               0.612
##  6 Armenia    2010-2…                      18     7.4    5.8               0.322
##  7 Australia  2015                         33.3  16.1   12.9               0.387
##  8 Austria    2016                         29.5  13      7.8               0.264
##  9 Azerbaijan 2015                         27.6   7.4    5.8               0.210
## 10 Bahrain    2015                         28    22     18.3               0.654
## # … with 162 more rows

# Obtaining summary statistics for cesarean section births as
# it is grouped by male obesity prevalence Using summarize
# inside of group by that includes 3 unique functions inside
# of summarize
csobesity %>% na.omit %>% group_by(Male) %>% summarize(mean_csec = mean(Births.by.caesarean.section...., 
    na.rm = T), sd_csec = sd(Births.by.caesarean.section...., 
    na.rm = T), n = n(), se_csec = sd_csec/sqrt(n))

## # A tibble: 120 x 5
##     Male mean_csec sd_csec     n se_csec
##    <dbl>     <dbl>   <dbl> <int>   <dbl>
##  1   0.8      5.3    NA        1   NA   
##  2   0.9     13      NA        1   NA   
##  3   1        1.4    NA        1   NA   
##  4   1.1      3.7    NA        1   NA   
##  5   1.2      1.9    NA        1   NA   
##  6   1.4      2.25    1.20     2    0.85
##  7   1.5      5.5    NA        1   NA   
##  8   1.6      6.1    NA        1   NA   
##  9   1.7      6.57    5.43     3    3.13
## 10   1.8      5.75    4.17     2    2.95
## # … with 110 more rows

# Obtaining summary statistics for cesarean section births as
# it is grouped by female obesity prevalence Using summarize
# inside of group by that includes 3 unique functions inside
# of summarize
csobesity %>% na.omit %>% group_by(Female) %>% summarize(mean_csec = mean(Births.by.caesarean.section...., 
    na.rm = T), sd_csec = sd(Births.by.caesarean.section...., 
    na.rm = T), n = n(), se_csec = sd_csec/sqrt(n))

## # A tibble: 108 x 5
##    Female mean_csec sd_csec     n se_csec
##     <dbl>     <dbl>   <dbl> <int>   <dbl>
##  1    1.5      3.7    NA        1   NA   
##  2    1.9      6.3    NA        1   NA   
##  3    2        4.9    NA        1   NA   
##  4    2.3     14.7    18.1      2   12.8 
##  5    2.6      9.55   10.8      2    7.65
##  6    2.7      2.8    NA        1   NA   
##  7    2.8      5.2     5.37     2    3.8 
##  8    2.9     10.5    12.9      2    9.15
##  9    3.2     30.7    NA        1   NA   
## 10    3.4      9.58    7.07     4    3.54
## # … with 98 more rows
…
